results/phase-data-ecc/ddr4_ecc_engine.vcd
$date
	Thu Mar 12 11:09:08 2026
$end
$version
	Icarus Verilog
$end
$timescale
	1ps
$end
$scope module ddr4_ecc_engine_tb $end
$var wire 72 ! enc_data_out [71:0] $end
$var wire 8 " dec_syndrome [7:0] $end
$var wire 1 # dec_single_err $end
$var wire 7 $ dec_err_bit [6:0] $end
$var wire 1 % dec_double_err $end
$var wire 64 & dec_data_out [63:0] $end
$var reg 1 ' clk $end
$var reg 72 ( dec_data_in [71:0] $end
$var reg 64 ) enc_data_in [63:0] $end
$var reg 72 * injected [71:0] $end
$var reg 1 + rst_n $end
$var integer 32 , fail_cnt [31:0] $end
$var integer 32 - i [31:0] $end
$var integer 32 . pass_cnt [31:0] $end
$scope module dut $end
$var wire 1 ' clk $end
$var wire 72 / dec_data_in [71:0] $end
$var wire 1 % dec_double_err $end
$var wire 7 0 dec_err_bit [6:0] $end
$var wire 1 1 dec_s1 $end
$var wire 1 2 dec_s16 $end
$var wire 1 3 dec_s2 $end
$var wire 1 4 dec_s32 $end
$var wire 1 5 dec_s4 $end
$var wire 1 6 dec_s64 $end
$var wire 1 7 dec_s8 $end
$var wire 1 # dec_single_err $end
$var wire 64 8 enc_data_in [63:0] $end
$var wire 1 9 enc_p1 $end
$var wire 1 : enc_p16 $end
$var wire 1 ; enc_p2 $end
$var wire 1 < enc_p32 $end
$var wire 1 = enc_p4 $end
$var wire 1 > enc_p64 $end
$var wire 1 ? enc_p8 $end
$var wire 1 + rst_n $end
$var wire 72 @ enc_partial [71:0] $end
$var wire 1 A enc_p0 $end
$var wire 72 B enc_data_out [71:0] $end
$var wire 72 C enc_cw_noP0 [71:0] $end
$var wire 8 D dec_syndrome [7:0] $end
$var wire 1 E dec_p0_check $end
$var wire 7 F dec_hamming_syn [6:0] $end
$var wire 64 G dec_data_out [63:0] $end
$var wire 72 H dec_corrected_cw [71:0] $end
$scope begin gen_correct[0] $end
$var parameter 2 I gi $end
$upscope $end
$scope begin gen_correct[1] $end
$var parameter 2 J gi $end
$upscope $end
$scope begin gen_correct[2] $end
$var parameter 3 K gi $end
$upscope $end
$scope begin gen_correct[3] $end
$var parameter 3 L gi $end
$upscope $end
$scope begin gen_correct[4] $end
$var parameter 4 M gi $end
$upscope $end
$scope begin gen_correct[5] $end
$var parameter 4 N gi $end
$upscope $end
$scope begin gen_correct[6] $end
$var parameter 4 O gi $end
$upscope $end
$scope begin gen_correct[7] $end
$var parameter 4 P gi $end
$upscope $end
$scope begin gen_correct[8] $end
$var parameter 5 Q gi $end
$upscope $end
$scope begin gen_correct[9] $end
$var parameter 5 R gi $end
$upscope $end
$scope begin gen_correct[10] $end
$var parameter 5 S gi $end
$upscope $end
$scope begin gen_correct[11] $end
$var parameter 5 T gi $end
$upscope $end
$scope begin gen_correct[12] $end
$var parameter 5 U gi $end
$upscope $end
$scope begin gen_correct[13] $end
$var parameter 5 V gi $end
$upscope $end
$scope begin gen_correct[14] $end
$var parameter 5 W gi $end
$upscope $end
$scope begin gen_correct[15] $end
$var parameter 5 X gi $end
$upscope $end
$scope begin gen_correct[16] $end
$var parameter 6 Y gi $end
$upscope $end
$scope begin gen_correct[17] $end
$var parameter 6 Z gi $end
$upscope $end
$scope begin gen_correct[18] $end
$var parameter 6 [ gi $end
$upscope $end
$scope begin gen_correct[19] $end
$var parameter 6 \ gi $end
$upscope $end
$scope begin gen_correct[20] $end
$var parameter 6 ] gi $end
$upscope $end
$scope begin gen_correct[21] $end
$var parameter 6 ^ gi $end
$upscope $end
$scope begin gen_correct[22] $end
$var parameter 6 _ gi $end
$upscope $end
$scope begin gen_correct[23] $end
$var parameter 6 ` gi $end
$upscope $end
$scope begin gen_correct[24] $end
$var parameter 6 a gi $end
$upscope $end
$scope begin gen_correct[25] $end
$var parameter 6 b gi $end
$upscope $end
$scope begin gen_correct[26] $end
$var parameter 6 c gi $end
$upscope $end
$scope begin gen_correct[27] $end
$var parameter 6 d gi $end
$upscope $end
$scope begin gen_correct[28] $end
$var parameter 6 e gi $end
$upscope $end
$scope begin gen_correct[29] $end
$var parameter 6 f gi $end
$upscope $end
$scope begin gen_correct[30] $end
$var parameter 6 g gi $end
$upscope $end
$scope begin gen_correct[31] $end
$var parameter 6 h gi $end
$upscope $end
$scope begin gen_correct[32] $end
$var parameter 7 i gi $end
$upscope $end
$scope begin gen_correct[33] $end
$var parameter 7 j gi $end
$upscope $end
$scope begin gen_correct[34] $end
$var parameter 7 k gi $end
$upscope $end
$scope begin gen_correct[35] $end
$var parameter 7 l gi $end
$upscope $end
$scope begin gen_correct[36] $end
$var parameter 7 m gi $end
$upscope $end
$scope begin gen_correct[37] $end
$var parameter 7 n gi $end
$upscope $end
$scope begin gen_correct[38] $end
$var parameter 7 o gi $end
$upscope $end
$scope begin gen_correct[39] $end
$var parameter 7 p gi $end
$upscope $end
$scope begin gen_correct[40] $end
$var parameter 7 q gi $end
$upscope $end
$scope begin gen_correct[41] $end
$var parameter 7 r gi $end
$upscope $end
$scope begin gen_correct[42] $end
$var parameter 7 s gi $end
$upscope $end
$scope begin gen_correct[43] $end
$var parameter 7 t gi $end
$upscope $end
$scope begin gen_correct[44] $end
$var parameter 7 u gi $end
$upscope $end
$scope begin gen_correct[45] $end
$var parameter 7 v gi $end
$upscope $end
$scope begin gen_correct[46] $end
$var parameter 7 w gi $end
$upscope $end
$scope begin gen_correct[47] $end
$var parameter 7 x gi $end
$upscope $end
$scope begin gen_correct[48] $end
$var parameter 7 y gi $end
$upscope $end
$scope begin gen_correct[49] $end
$var parameter 7 z gi $end
$upscope $end
$scope begin gen_correct[50] $end
$var parameter 7 { gi $end
$upscope $end
$scope begin gen_correct[51] $end
$var parameter 7 | gi $end
$upscope $end
$scope begin gen_correct[52] $end
$var parameter 7 } gi $end
$upscope $end
$scope begin gen_correct[53] $end
$var parameter 7 ~ gi $end
$upscope $end
$scope begin gen_correct[54] $end
$var parameter 7 !" gi $end
$upscope $end
$scope begin gen_correct[55] $end
$var parameter 7 "" gi $end
$upscope $end
$scope begin gen_correct[56] $end
$var parameter 7 #" gi $end
$upscope $end
$scope begin gen_correct[57] $end
$var parameter 7 $" gi $end
$upscope $end
$scope begin gen_correct[58] $end
$var parameter 7 %" gi $end
$upscope $end
$scope begin gen_correct[59] $end
$var parameter 7 &" gi $end
$upscope $end
$scope begin gen_correct[60] $end
$var parameter 7 '" gi $end
$upscope $end
$scope begin gen_correct[61] $end
$var parameter 7 (" gi $end
$upscope $end
$scope begin gen_correct[62] $end
$var parameter 7 )" gi $end
$upscope $end
$scope begin gen_correct[63] $end
$var parameter 7 *" gi $end
$upscope $end
$scope begin gen_correct[64] $end
$var parameter 8 +" gi $end
$upscope $end
$scope begin gen_correct[65] $end
$var parameter 8 ," gi $end
$upscope $end
$scope begin gen_correct[66] $end
$var parameter 8 -" gi $end
$upscope $end
$scope begin gen_correct[67] $end
$var parameter 8 ." gi $end
$upscope $end
$scope begin gen_correct[68] $end
$var parameter 8 /" gi $end
$upscope $end
$scope begin gen_correct[69] $end
$var parameter 8 0" gi $end
$upscope $end
$scope begin gen_correct[70] $end
$var parameter 8 1" gi $end
$upscope $end
$scope begin gen_correct[71] $end
$var parameter 8 2" gi $end
$upscope $end
$upscope $end
$scope task check_dbe $end
$var reg 64 3" data [63:0] $end
$var integer 32 4" pos_a [31:0] $end
$var integer 32 5" pos_b [31:0] $end
$upscope $end
$scope task check_no_error $end
$var reg 64 6" data [63:0] $end
$upscope $end
$scope task check_sbe $end
$var reg 64 7" data [63:0] $end
$var integer 32 8" bit_pos [31:0] $end
$upscope $end
$upscope $end
$enddefinitions $end
$comment Show the parameter values. $end
$dumpall
b1000111 2"
b1000110 1"
b1000101 0"
b1000100 /"
b1000011 ."
b1000010 -"
b1000001 ,"
b1000000 +"
b111111 *"
b111110 )"
b111101 ("
b111100 '"
b111011 &"
b111010 %"
b111001 $"
b111000 #"
b110111 ""
b110110 !"
b110101 ~
b110100 }
b110011 |
b110010 {
b110001 z
b110000 y
b101111 x
b101110 w
b101101 v
b101100 u
b101011 t
b101010 s
b101001 r
b101000 q
b100111 p
b100110 o
b100101 n
b100100 m
b100011 l
b100010 k
b100001 j
b100000 i
b11111 h
b11110 g
b11101 f
b11100 e
b11011 d
b11010 c
b11001 b
b11000 a
b10111 `
b10110 _
b10101 ^
b10100 ]
b10011 \
b10010 [
b10001 Z
b10000 Y
b1111 X
b1110 W
b1101 V
b1100 U
b1011 T
b1010 S
b1001 R
b1000 Q
b111 P
b110 O
b101 N
b100 M
b11 L
b10 K
b1 J
b0 I
$end
#0
$dumpvars
bx 8"
bx 7"
bx 6"
bx 5"
bx 4"
bx 3"
b0 H
b0 G
b0 F
0E
b0 D
b0 C
b0 B
0A
b0 @
0?
0>
0=
0<
0;
0:
09
b0 8
07
06
05
04
03
02
01
b0 0
b0 /
b0 .
bx -
b0 ,
0+
bx *
b0 )
b0 (
0'
b0 &
0%
b0 $
0#
b0 "
b0 !
$end
#5000
1'
#10000
1+
0'
#15000
1'
#20000
b0 6"
0'
#22000
1A
b111111111111111111111111111111111111111111111111111111111111111111111111 !
b111111111111111111111111111111111111111111111111111111111111111111111111 B
19
1;
1=
1?
1:
1<
b111111111111111111111111111111111111111111111111111111111111111111111110 C
1>
b111111101111111111111111111111111111111011111111111111101111111011101000 @
b1111111111111111111111111111111111111111111111111111111111111111 )
b1111111111111111111111111111111111111111111111111111111111111111 8
b1111111111111111111111111111111111111111111111111111111111111111 6"
b1 .
#23000
b1111111111111111111111111111111111111111111111111111111111111111 &
b1111111111111111111111111111111111111111111111111111111111111111 G
0%
b111111111111111111111111111111111111111111111111111111111111111111111111 H
01
03
05
07
02
04
b0 "
b0 D
b0 $
b0 0
b0 F
06
b111111111111111111111111111111111111111111111111111111111111111111111111 (
b111111111111111111111111111111111111111111111111111111111111111111111111 /
#24000
19
0?
1:
0<
1A
b101001011101001011010010110100101101001001101001011010011011010001001011 !
b101001011101001011010010110100101101001001101001011010011011010001001011 B
0;
0=
1>
b101001011101001011010010110100101101001001101001011010011011010001001010 C
b101001001101001011010010110100101101001001101001011010001011010001001000 @
b1010010110100101101001011010010110100101101001011010010110100101 )
b1010010110100101101001011010010110100101101001011010010110100101 8
b1010010110100101101001011010010110100101101001011010010110100101 6"
b10 .
#25000
01
07
02
04
0%
b1010010110100101101001011010010110100101101001011010010110100101 &
b1010010110100101101001011010010110100101101001011010010110100101 G
03
05
b0 "
b0 D
b0 $
b0 0
b0 F
06
b101001011101001011010010110100101101001001101001011010011011010001001011 H
b101001011101001011010010110100101101001001101001011010011011010001001011 (
b101001011101001011010010110100101101001001101001011010011011010001001011 /
1'
#26000
0A
b10110100010110100101101001011010010110110010110100101100100101110110100 !
b10110100010110100101101001011010010110110010110100101100100101110110100 B
09
1;
1=
1?
0:
1<
b10110100010110100101101001011010010110110010110100101100100101110110100 C
0>
b10110100010110100101101001011010010110010010110100101100100101010100000 @
b101101001011010010110100101101001011010010110100101101001011010 )
b101101001011010010110100101101001011010010110100101101001011010 8
b101101001011010010110100101101001011010010110100101101001011010 6"
b11 .
#27000
b101101001011010010110100101101001011010010110100101101001011010 &
b101101001011010010110100101101001011010010110100101101001011010 G
0%
b10110100010110100101101001011010010110110010110100101100100101110110100 H
01
03
05
07
02
04
b0 "
b0 D
b0 $
b0 0
b0 F
06
b10110100010110100101101001011010010110110010110100101100100101110110100 (
b10110100010110100101101001011010010110110010110100101100100101110110100 /
#28000
0A
1?
1:
1<
b110111100101011011011111011101111110010110111111101011110101011111100100 !
b110111100101011011011111011101111110010110111111101011110101011111100100 B
09
1;
0=
b110111100101011011011111011101111110010110111111101011110101011111100100 C
0>
b110111100101011011011111011101111110010010111111101011100101011011100000 @
b1101111010101101101111101110111111001010111111101011101010111110 )
b1101111010101101101111101110111111001010111111101011101010111110 8
b1101111010101101101111101110111111001010111111101011101010111110 6"
b100 .
#29000
b1101111010101101101111101110111111001010111111101011101010111110 &
b1101111010101101101111101110111111001010111111101011101010111110 G
07
02
04
0%
b110111100101011011011111011101111110010110111111101011110101011111100100 H
01
03
05
b0 "
b0 D
b0 $
b0 0
b0 F
06
b110111100101011011011111011101111110010110111111101011110101011111100100 (
b110111100101011011011111011101111110010110111111101011110101011111100100 /
#30000
1A
b1001000110100010101100111100010001101010111100111011110111111001 !
b1001000110100010101100111100010001101010111100111011110111111001 B
09
0;
1=
1?
1:
0<
b1001000110100010101100111100010001101010111100111011110111111000 C
0>
b1001000110100010101100111100010001101010111100101011110011101000 @
b100100011010001010110011110001001101010111100110111101111 )
b100100011010001010110011110001001101010111100110111101111 8
b100100011010001010110011110001001101010111100110111101111 6"
b101 .
0'
#31000
b100100011010001010110011110001001101010111100110111101111 &
b100100011010001010110011110001001101010111100110111101111 G
0%
b1001000110100010101100111100010001101010111100111011110111111001 H
01
03
05
07
02
04
b0 "
b0 D
b0 $
b0 0
b0 F
06
b1001000110100010101100111100010001101010111100111011110111111001 (
b1001000110100010101100111100010001101010111100111011110111111001 /
#32000
0A
b110111100101011011011111011101111110010110111111101011110101011111100100 !
b110111100101011011011111011101111110010110111111101011110101011111100100 B
09
1;
0=
1?
1:
1<
b110111100101011011011111011101111110010110111111101011110101011111100100 C
0>
b110111100101011011011111011101111110010010111111101011100101011011100000 @
b1101111010101101101111101110111111001010111111101011101010111110 )
b1101111010101101101111101110111111001010111111101011101010111110 8
b0 8"
b1101111010101101101111101110111111001010111111101011101010111110 7"
b0 -
b110 .
#33000
b1101111010101101101111101110111111001010111111101011101010111110 &
b1101111010101101101111101110111111001010111111101011101010111110 G
0#
b110111100101011011011111011101111110010110111111101011110101011111100101 H
01
03
05
07
02
04
b0 $
b0 0
b0 F
06
b1 "
b1 D
1E
b110111100101011011011111011101111110010110111111101011110101011111100101 (
b110111100101011011011111011101111110010110111111101011110101011111100101 /
b110111100101011011011111011101111110010110111111101011110101011111100101 *
#34000
b1 8"
b1 -
b111 .
#35000
1#
b11 "
b11 D
b1 $
b1 0
b1 F
11
b110111100101011011011111011101111110010110111111101011110101011111100100 H
b110111100101011011011111011101111110010110111111101011110101011111100110 (
b110111100101011011011111011101111110010110111111101011110101011111100110 /
b110111100101011011011111011101111110010110111111101011110101011111100110 *
1'
#36000
b10 8"
b10 -
b1000 .
#37000
01
b101 "
b101 D
b10 $
b10 0
b10 F
13
b110111100101011011011111011101111110010110111111101011110101011111100100 H
b110111100101011011011111011101111110010110111111101011110101011111100000 (
b110111100101011011011111011101111110010110111111101011110101011111100000 /
b110111100101011011011111011101111110010110111111101011110101011111100000 *
#38000
b11 8"
b11 -
b1001 .
#39000
b111 "
b111 D
b11 $
b11 0
b11 F
11
b1101111010101101101111101110111111001010111111101011101010111110 &
b1101111010101101101111101110111111001010111111101011101010111110 G
b110111100101011011011111011101111110010110111111101011110101011111100100 H
b110111100101011011011111011101111110010110111111101011110101011111101100 (
b110111100101011011011111011101111110010110111111101011110101011111101100 /
b110111100101011011011111011101111110010110111111101011110101011111101100 *
#40000
b100 8"
b100 -
b1010 .
0'
#41000
01
03
b1001 "
b1001 D
b100 $
b100 0
b100 F
15
b1101111010101101101111101110111111001010111111101011101010111110 &
b1101111010101101101111101110111111001010111111101011101010111110 G
b110111100101011011011111011101111110010110111111101011110101011111100100 H
b110111100101011011011111011101111110010110111111101011110101011111110100 (
b110111100101011011011111011101111110010110111111101011110101011111110100 /
b110111100101011011011111011101111110010110111111101011110101011111110100 *
#42000
b101 8"
b101 -
b1011 .
#43000
b1011 "
b1011 D
b101 $
b101 0
b101 F
11
b1101111010101101101111101110111111001010111111101011101010111110 &
b1101111010101101101111101110111111001010111111101011101010111110 G
b110111100101011011011111011101111110010110111111101011110101011111100100 H
b110111100101011011011111011101111110010110111111101011110101011111000100 (
b110111100101011011011111011101111110010110111111101011110101011111000100 /
b110111100101011011011111011101111110010110111111101011110101011111000100 *
#44000
b110 8"
b110 -
b1100 .
#45000
01
13
b1101 "
b1101 D
b110 $
b110 0
b110 F
15
b1101111010101101101111101110111111001010111111101011101010111110 &
b1101111010101101101111101110111111001010111111101011101010111110 G
b110111100101011011011111011101111110010110111111101011110101011111100100 H
b110111100101011011011111011101111110010110111111101011110101011110100100 (
b110111100101011011011111011101111110010110111111101011110101011110100100 /
b110111100101011011011111011101111110010110111111101011110101011110100100 *
1'
#46000
b111 8"
b111 -
b1101 .
#47000
11
13
b1111 "
b1111 D
b111 $
b111 0
b111 F
15
b1101111010101101101111101110111111001010111111101011101010111110 &
b1101111010101101101111101110111111001010111111101011101010111110 G
b110111100101011011011111011101111110010110111111101011110101011111100100 H
b110111100101011011011111011101111110010110111111101011110101011101100100 (
b110111100101011011011111011101111110010110111111101011110101011101100100 /
b110111100101011011011111011101111110010110111111101011110101011101100100 *
#48000
b1000 8"
b1000 -
b1110 .
#49000
01
03
05
b10001 "
b10001 D
b1000 $
b1000 0
b1000 F
17
b1101111010101101101111101110111111001010111111101011101010111110 &
b1101111010101101101111101110111111001010111111101011101010111110 G
b110111100101011011011111011101111110010110111111101011110101011111100100 H
b110111100101011011011111011101111110010110111111101011110101011011100100 (
b110111100101011011011111011101111110010110111111101011110101011011100100 /
b110111100101011011011111011101111110010110111111101011110101011011100100 *
#50000
b1001 8"
b1001 -
b1111 .
0'
#51000
b10011 "
b10011 D
b1001 $
b1001 0
b1001 F
11
b1101111010101101101111101110111111001010111111101011101010111110 &
b1101111010101101101111101110111111001010111111101011101010111110 G
b110111100101011011011111011101111110010110111111101011110101011111100100 H
b110111100101011011011111011101111110010110111111101011110101010111100100 (
b110111100101011011011111011101111110010110111111101011110101010111100100 /
b110111100101011011011111011101111110010110111111101011110101010111100100 *
#52000
b1010 8"
b1010 -
b10000 .
#53000
01
13
b10101 "
b10101 D
b1010 $
b1010 0
b1010 F
17
b1101111010101101101111101110111111001010111111101011101010111110 &
b1101111010101101101111101110111111001010111111101011101010111110 G
b110111100101011011011111011101111110010110111111101011110101011111100100 H
b110111100101011011011111011101111110010110111111101011110101001111100100 (
b110111100101011011011111011101111110010110111111101011110101001111100100 /
b110111100101011011011111011101111110010110111111101011110101001111100100 *
#54000
b1011 8"
b1011 -
b10001 .
#55000
11
13
b10111 "
b10111 D
b1011 $
b1011 0
b1011 F
17
b1101111010101101101111101110111111001010111111101011101010111110 &
b1101111010101101101111101110111111001010111111101011101010111110 G
b110111100101011011011111011101111110010110111111101011110101011111100100 H
b110111100101011011011111011101111110010110111111101011110101111111100100 (
b110111100101011011011111011101111110010110111111101011110101111111100100 /
b110111100101011011011111011101111110010110111111101011110101111111100100 *
1'
#56000
b1100 8"
b1100 -
b10010 .
#57000
15
01
03
b11001 "
b11001 D
b1100 $
b1100 0
b1100 F
17
b1101111010101101101111101110111111001010111111101011101010111110 &
b1101111010101101101111101110111111001010111111101011101010111110 G
b110111100101011011011111011101111110010110111111101011110101011111100100 H
b110111100101011011011111011101111110010110111111101011110100011111100100 (
b110111100101011011011111011101111110010110111111101011110100011111100100 /
b110111100101011011011111011101111110010110111111101011110100011111100100 *
#58000
b1101 8"
b1101 -
b10011 .
#59000
15
11
b11011 "
b11011 D
b1101 $
b1101 0
b1101 F
17
b1101111010101101101111101110111111001010111111101011101010111110 &
b1101111010101101101111101110111111001010111111101011101010111110 G
b110111100101011011011111011101111110010110111111101011110101011111100100 H
b110111100101011011011111011101111110010110111111101011110111011111100100 (
b110111100101011011011111011101111110010110111111101011110111011111100100 /
b110111100101011011011111011101111110010110111111101011110111011111100100 *
#60000
b1110 8"
b1110 -
b10100 .
0'
#61000
01
13
15
b11101 "
b11101 D
b1110 $
b1110 0
b1110 F
17
b1101111010101101101111101110111111001010111111101011101010111110 &
b1101111010101101101111101110111111001010111111101011101010111110 G
b110111100101011011011111011101111110010110111111101011110101011111100100 H
b110111100101011011011111011101111110010110111111101011110001011111100100 (
b110111100101011011011111011101111110010110111111101011110001011111100100 /
b110111100101011011011111011101111110010110111111101011110001011111100100 *
#62000
b1111 8"
b1111 -
b10101 .
#63000
11
13
15
b11111 "
b11111 D
b1111 $
b1111 0
b1111 F
17
b1101111010101101101111101110111111001010111111101011101010111110 &
b1101111010101101101111101110111111001010111111101011101010111110 G
b110111100101011011011111011101111110010110111111101011110101011111100100 H
b110111100101011011011111011101111110010110111111101011111101011111100100 (
b110111100101011011011111011101111110010110111111101011111101011111100100 /
b110111100101011011011111011101111110010110111111101011111101011111100100 *
#64000
b10000 8"
b10000 -
b10110 .
#65000
12
1#
01
03
05
b100001 "
b100001 D
b10000 $
b10000 0
b10000 F
07
b1101111010101101101111101110111111001010111111101011101010111110 &
b1101111010101101101111101110111111001010111111101011101010111110 G
b110111100101011011011111011101111110010110111111101011110101011111100100 H
b110111100101011011011111011101111110010110111111101011100101011111100100 (
b110111100101011011011111011101111110010110111111101011100101011111100100 /
b110111100101011011011111011101111110010110111111101011100101011111100100 *
1'
#66000
b10001 8"
b10001 -
b10111 .
#67000
b100011 "
b100011 D
b10001 $
b10001 0
b10001 F
11
b1101111010101101101111101110111111001010111111101011101010111110 &
b1101111010101101101111101110111111001010111111101011101010111110 G
b110111100101011011011111011101111110010110111111101011110101011111100100 H
b110111100101011011011111011101111110010110111111101011010101011111100100 (
b110111100101011011011111011101111110010110111111101011010101011111100100 /
b110111100101011011011111011101111110010110111111101011010101011111100100 *
#68000
b10010 8"
b10010 -
b11000 .
#69000
12
01
b100101 "
b100101 D
b10010 $
b10010 0
b10010 F
13
b1101111010101101101111101110111111001010111111101011101010111110 &
b1101111010101101101111101110111111001010111111101011101010111110 G
b110111100101011011011111011101111110010110111111101011110101011111100100 H
b110111100101011011011111011101111110010110111111101010110101011111100100 (
b110111100101011011011111011101111110010110111111101010110101011111100100 /
b110111100101011011011111011101111110010110111111101010110101011111100100 *
#70000
b10011 8"
b10011 -
b11001 .
0'
#71000
12
11
b100111 "
b100111 D
b10011 $
b10011 0
b10011 F
13
b1101111010101101101111101110111111001010111111101011101010111110 &
b1101111010101101101111101110111111001010111111101011101010111110 G
b110111100101011011011111011101111110010110111111101011110101011111100100 H
b110111100101011011011111011101111110010110111111101001110101011111100100 (
b110111100101011011011111011101111110010110111111101001110101011111100100 /
b110111100101011011011111011101111110010110111111101001110101011111100100 *
#72000
b10100 8"
b10100 -
b11010 .
#73000
15
12
01
b101001 "
b101001 D
b10100 $
b10100 0
b10100 F
03
b1101111010101101101111101110111111001010111111101011101010111110 &
b1101111010101101101111101110111111001010111111101011101010111110 G
b110111100101011011011111011101111110010110111111101011110101011111100100 H
b110111100101011011011111011101111110010110111111101111110101011111100100 (
b110111100101011011011111011101111110010110111111101111110101011111100100 /
b110111100101011011011111011101111110010110111111101111110101011111100100 *
#74000
b10101 8"
b10101 -
b11011 .
#75000
15
12
b101011 "
b101011 D
b10101 $
b10101 0
b10101 F
11
b1101111010101101101111101110111111001010111111101011101010111110 &
b1101111010101101101111101110111111001010111111101011101010111110 G
b110111100101011011011111011101111110010110111111101011110101011111100100 H
b110111100101011011011111011101111110010110111111100011110101011111100100 (
b110111100101011011011111011101111110010110111111100011110101011111100100 /
b110111100101011011011111011101111110010110111111100011110101011111100100 *
1'
#76000
b10110 8"
b10110 -
b11100 .
#77000
01
13
15
b101101 "
b101101 D
b10110 $
b10110 0
b10110 F
12
b1101111010101101101111101110111111001010111111101011101010111110 &
b1101111010101101101111101110111111001010111111101011101010111110 G
b110111100101011011011111011101111110010110111111101011110101011111100100 H
b110111100101011011011111011101111110010110111111111011110101011111100100 (
b110111100101011011011111011101111110010110111111111011110101011111100100 /
b110111100101011011011111011101111110010110111111111011110101011111100100 *
#78000
b10111 8"
b10111 -
b11101 .
#79000
11
13
15
b101111 "
b101111 D
b10111 $
b10111 0
b10111 F
12
b1101111010101101101111101110111111001010111111101011101010111110 &
b1101111010101101101111101110111111001010111111101011101010111110 G
b110111100101011011011111011101111110010110111111101011110101011111100100 H
b110111100101011011011111011101111110010110111111001011110101011111100100 (
b110111100101011011011111011101111110010110111111001011110101011111100100 /
b110111100101011011011111011101111110010110111111001011110101011111100100 *
#80000
b11000 8"
b11000 -
b11110 .
0'
#81000
01
03
05
17
b110001 "
b110001 D
b11000 $
b11000 0
b11000 F
12
b1101111010101101101111101110111111001010111111101011101010111110 &
b1101111010101101101111101110111111001010111111101011101010111110 G
b110111100101011011011111011101111110010110111111101011110101011111100100 H
b110111100101011011011111011101111110010110111110101011110101011111100100 (
b110111100101011011011111011101111110010110111110101011110101011111100100 /
b110111100101011011011111011101111110010110111110101011110101011111100100 *
#82000
b11001 8"
b11001 -
b11111 .
#83000
11
17
b110011 "
b110011 D
b11001 $
b11001 0
b11001 F
12
b1101111010101101101111101110111111001010111111101011101010111110 &
b1101111010101101101111101110111111001010111111101011101010111110 G
b110111100101011011011111011101111110010110111111101011110101011111100100 H
b110111100101011011011111011101111110010110111101101011110101011111100100 (
b110111100101011011011111011101111110010110111101101011110101011111100100 /
b110111100101011011011111011101111110010110111101101011110101011111100100 *
#84000
b11010 8"
b11010 -
b100000 .
#85000
01
13
17
b110101 "
b110101 D
b11010 $
b11010 0
b11010 F
12
b1101111010101101101111101110111111001010111111101011101010111110 &
b1101111010101101101111101110111111001010111111101011101010111110 G
b110111100101011011011111011101111110010110111111101011110101011111100100 H
b110111100101011011011111011101111110010110111011101011110101011111100100 (
b110111100101011011011111011101111110010110111011101011110101011111100100 /
b110111100101011011011111011101111110010110111011101011110101011111100100 *
1'
#86000
b11011 8"
b11011 -
b100001 .
#87000
11
13
17
b110111 "
b110111 D
b11011 $
b11011 0
b11011 F
12
b1101111010101101101111101110111111001010111111101011101010111110 &
b1101111010101101101111101110111111001010111111101011101010111110 G
b110111100101011011011111011101111110010110111111101011110101011111100100 H
b110111100101011011011111011101111110010110110111101011110101011111100100 (
b110111100101011011011111011101111110010110110111101011110101011111100100 /
b110111100101011011011111011101111110010110110111101011110101011111100100 *
#88000
b11100 8"
b11100 -
b100010 .
#89000
15
01
03
17
b111001 "
b111001 D
b11100 $
b11100 0
b11100 F
12
b1101111010101101101111101110111111001010111111101011101010111110 &
b1101111010101101101111101110111111001010111111101011101010111110 G
b110111100101011011011111011101111110010110111111101011110101011111100100 H
b110111100101011011011111011101111110010110101111101011110101011111100100 (
b110111100101011011011111011101111110010110101111101011110101011111100100 /
b110111100101011011011111011101111110010110101111101011110101011111100100 *
#90000
b11101 8"
b11101 -
b100011 .
0'
#91000
15
11
17
b111011 "
b111011 D
b11101 $
b11101 0
b11101 F
12
b1101111010101101101111101110111111001010111111101011101010111110 &
b1101111010101101101111101110111111001010111111101011101010111110 G
b110111100101011011011111011101111110010110111111101011110101011111100100 H
b110111100101011011011111011101111110010110011111101011110101011111100100 (
b110111100101011011011111011101111110010110011111101011110101011111100100 /
b110111100101011011011111011101111110010110011111101011110101011111100100 *
#92000
b11110 8"
b11110 -
b100100 .
#93000
01
13
15
17
b111101 "
b111101 D
b11110 $
b11110 0
b11110 F
12
b1101111010101101101111101110111111001010111111101011101010111110 &
b1101111010101101101111101110111111001010111111101011101010111110 G
b110111100101011011011111011101111110010110111111101011110101011111100100 H
b110111100101011011011111011101111110010111111111101011110101011111100100 (
b110111100101011011011111011101111110010111111111101011110101011111100100 /
b110111100101011011011111011101111110010111111111101011110101011111100100 *
#94000
b11111 8"
b11111 -
b100101 .
#95000
11
13
15
17
b111111 "
b111111 D
b11111 $
b11111 0
b11111 F
12
b1101111010101101101111101110111111001010111111101011101010111110 &
b1101111010101101101111101110111111001010111111101011101010111110 G
b110111100101011011011111011101111110010110111111101011110101011111100100 H
b110111100101011011011111011101111110010100111111101011110101011111100100 (
b110111100101011011011111011101111110010100111111101011110101011111100100 /
b110111100101011011011111011101111110010100111111101011110101011111100100 *
1'
#96000
b100000 8"
b100000 -
b100110 .
#97000
14
1#
01
03
05
07
b1000001 "
b1000001 D
b100000 $
b100000 0
b100000 F
02
b1101111010101101101111101110111111001010111111101011101010111110 &
b1101111010101101101111101110111111001010111111101011101010111110 G
b110111100101011011011111011101111110010110111111101011110101011111100100 H
b110111100101011011011111011101111110010010111111101011110101011111100100 (
b110111100101011011011111011101111110010010111111101011110101011111100100 /
b110111100101011011011111011101111110010010111111101011110101011111100100 *
#98000
b100001 8"
b100001 -
b100111 .
#99000
b1000011 "
b1000011 D
b100001 $
b100001 0
b100001 F
11
b1101111010101101101111101110111111001010111111101011101010111110 &
b1101111010101101101111101110111111001010111111101011101010111110 G
b110111100101011011011111011101111110010110111111101011110101011111100100 H
b110111100101011011011111011101111110011110111111101011110101011111100100 (
b110111100101011011011111011101111110011110111111101011110101011111100100 /
b110111100101011011011111011101111110011110111111101011110101011111100100 *
#100000
b100010 8"
b100010 -
b101000 .
0'
#101000
14
01
b1000101 "
b1000101 D
b100010 $
b100010 0
b100010 F
13
b1101111010101101101111101110111111001010111111101011101010111110 &
b1101111010101101101111101110111111001010111111101011101010111110 G
b110111100101011011011111011101111110010110111111101011110101011111100100 H
b110111100101011011011111011101111110000110111111101011110101011111100100 (
b110111100101011011011111011101111110000110111111101011110101011111100100 /
b110111100101011011011111011101111110000110111111101011110101011111100100 *
#102000
b100011 8"
b100011 -
b101001 .
#103000
14
11
b1000111 "
b1000111 D
b100011 $
b100011 0
b100011 F
13
b1101111010101101101111101110111111001010111111101011101010111110 &
b1101111010101101101111101110111111001010111111101011101010111110 G
b110111100101011011011111011101111110010110111111101011110101011111100100 H
b110111100101011011011111011101111110110110111111101011110101011111100100 (
b110111100101011011011111011101111110110110111111101011110101011111100100 /
b110111100101011011011111011101111110110110111111101011110101011111100100 *
#104000
b100100 8"
b100100 -
b101010 .
