results/phase-data-ecc/ddr4_ecc_engine.vcd
$date
	Thu Mar 12 11:39:04 2026
$end
$version
	Icarus Verilog
$end
$timescale
	1ps
$end
$scope module ddr4_ecc_engine_tb $end
$var wire 72 ! enc_data_out [71:0] $end
$var wire 8 " dec_syndrome [7:0] $end
$var wire 1 # dec_single_err $end
$var wire 7 $ dec_err_bit [6:0] $end
$var wire 1 % dec_double_err $end
$var wire 64 & dec_data_out [63:0] $end
$var reg 1 ' clk $end
$var reg 72 ( dec_data_in [71:0] $end
$var reg 64 ) enc_data_in [63:0] $end
$var reg 72 * injected [71:0] $end
$var reg 1 + rst_n $end
$var integer 32 , fail_cnt [31:0] $end
$var integer 32 - i [31:0] $end
$var integer 32 . j [31:0] $end
$var integer 32 / pass_cnt [31:0] $end
$scope module dut $end
$var wire 1 ' clk $end
$var wire 72 0 dec_data_in [71:0] $end
$var wire 1 % dec_double_err $end
$var wire 7 1 dec_err_bit [6:0] $end
$var wire 1 2 dec_s1 $end
$var wire 1 3 dec_s16 $end
$var wire 1 4 dec_s2 $end
$var wire 1 5 dec_s32 $end
$var wire 1 6 dec_s4 $end
$var wire 1 7 dec_s64 $end
$var wire 1 8 dec_s8 $end
$var wire 1 # dec_single_err $end
$var wire 64 9 enc_data_in [63:0] $end
$var wire 1 : enc_p1 $end
$var wire 1 ; enc_p16 $end
$var wire 1 < enc_p2 $end
$var wire 1 = enc_p32 $end
$var wire 1 > enc_p4 $end
$var wire 1 ? enc_p64 $end
$var wire 1 @ enc_p8 $end
$var wire 1 + rst_n $end
$var wire 72 A enc_partial [71:0] $end
$var wire 1 B enc_p0 $end
$var wire 72 C enc_data_out [71:0] $end
$var wire 72 D enc_cw_noP0 [71:0] $end
$var wire 8 E dec_syndrome [7:0] $end
$var wire 1 F dec_p0_check $end
$var wire 7 G dec_hamming_syn [6:0] $end
$var wire 64 H dec_data_out [63:0] $end
$var wire 72 I dec_corrected_cw [71:0] $end
$scope begin gen_correct[0] $end
$var parameter 2 J gi $end
$upscope $end
$scope begin gen_correct[1] $end
$var parameter 2 K gi $end
$upscope $end
$scope begin gen_correct[2] $end
$var parameter 3 L gi $end
$upscope $end
$scope begin gen_correct[3] $end
$var parameter 3 M gi $end
$upscope $end
$scope begin gen_correct[4] $end
$var parameter 4 N gi $end
$upscope $end
$scope begin gen_correct[5] $end
$var parameter 4 O gi $end
$upscope $end
$scope begin gen_correct[6] $end
$var parameter 4 P gi $end
$upscope $end
$scope begin gen_correct[7] $end
$var parameter 4 Q gi $end
$upscope $end
$scope begin gen_correct[8] $end
$var parameter 5 R gi $end
$upscope $end
$scope begin gen_correct[9] $end
$var parameter 5 S gi $end
$upscope $end
$scope begin gen_correct[10] $end
$var parameter 5 T gi $end
$upscope $end
$scope begin gen_correct[11] $end
$var parameter 5 U gi $end
$upscope $end
$scope begin gen_correct[12] $end
$var parameter 5 V gi $end
$upscope $end
$scope begin gen_correct[13] $end
$var parameter 5 W gi $end
$upscope $end
$scope begin gen_correct[14] $end
$var parameter 5 X gi $end
$upscope $end
$scope begin gen_correct[15] $end
$var parameter 5 Y gi $end
$upscope $end
$scope begin gen_correct[16] $end
$var parameter 6 Z gi $end
$upscope $end
$scope begin gen_correct[17] $end
$var parameter 6 [ gi $end
$upscope $end
$scope begin gen_correct[18] $end
$var parameter 6 \ gi $end
$upscope $end
$scope begin gen_correct[19] $end
$var parameter 6 ] gi $end
$upscope $end
$scope begin gen_correct[20] $end
$var parameter 6 ^ gi $end
$upscope $end
$scope begin gen_correct[21] $end
$var parameter 6 _ gi $end
$upscope $end
$scope begin gen_correct[22] $end
$var parameter 6 ` gi $end
$upscope $end
$scope begin gen_correct[23] $end
$var parameter 6 a gi $end
$upscope $end
$scope begin gen_correct[24] $end
$var parameter 6 b gi $end
$upscope $end
$scope begin gen_correct[25] $end
$var parameter 6 c gi $end
$upscope $end
$scope begin gen_correct[26] $end
$var parameter 6 d gi $end
$upscope $end
$scope begin gen_correct[27] $end
$var parameter 6 e gi $end
$upscope $end
$scope begin gen_correct[28] $end
$var parameter 6 f gi $end
$upscope $end
$scope begin gen_correct[29] $end
$var parameter 6 g gi $end
$upscope $end
$scope begin gen_correct[30] $end
$var parameter 6 h gi $end
$upscope $end
$scope begin gen_correct[31] $end
$var parameter 6 i gi $end
$upscope $end
$scope begin gen_correct[32] $end
$var parameter 7 j gi $end
$upscope $end
$scope begin gen_correct[33] $end
$var parameter 7 k gi $end
$upscope $end
$scope begin gen_correct[34] $end
$var parameter 7 l gi $end
$upscope $end
$scope begin gen_correct[35] $end
$var parameter 7 m gi $end
$upscope $end
$scope begin gen_correct[36] $end
$var parameter 7 n gi $end
$upscope $end
$scope begin gen_correct[37] $end
$var parameter 7 o gi $end
$upscope $end
$scope begin gen_correct[38] $end
$var parameter 7 p gi $end
$upscope $end
$scope begin gen_correct[39] $end
$var parameter 7 q gi $end
$upscope $end
$scope begin gen_correct[40] $end
$var parameter 7 r gi $end
$upscope $end
$scope begin gen_correct[41] $end
$var parameter 7 s gi $end
$upscope $end
$scope begin gen_correct[42] $end
$var parameter 7 t gi $end
$upscope $end
$scope begin gen_correct[43] $end
$var parameter 7 u gi $end
$upscope $end
$scope begin gen_correct[44] $end
$var parameter 7 v gi $end
$upscope $end
$scope begin gen_correct[45] $end
$var parameter 7 w gi $end
$upscope $end
$scope begin gen_correct[46] $end
$var parameter 7 x gi $end
$upscope $end
$scope begin gen_correct[47] $end
$var parameter 7 y gi $end
$upscope $end
$scope begin gen_correct[48] $end
$var parameter 7 z gi $end
$upscope $end
$scope begin gen_correct[49] $end
$var parameter 7 { gi $end
$upscope $end
$scope begin gen_correct[50] $end
$var parameter 7 | gi $end
$upscope $end
$scope begin gen_correct[51] $end
$var parameter 7 } gi $end
$upscope $end
$scope begin gen_correct[52] $end
$var parameter 7 ~ gi $end
$upscope $end
$scope begin gen_correct[53] $end
$var parameter 7 !" gi $end
$upscope $end
$scope begin gen_correct[54] $end
$var parameter 7 "" gi $end
$upscope $end
$scope begin gen_correct[55] $end
$var parameter 7 #" gi $end
$upscope $end
$scope begin gen_correct[56] $end
$var parameter 7 $" gi $end
$upscope $end
$scope begin gen_correct[57] $end
$var parameter 7 %" gi $end
$upscope $end
$scope begin gen_correct[58] $end
$var parameter 7 &" gi $end
$upscope $end
$scope begin gen_correct[59] $end
$var parameter 7 '" gi $end
$upscope $end
$scope begin gen_correct[60] $end
$var parameter 7 (" gi $end
$upscope $end
$scope begin gen_correct[61] $end
$var parameter 7 )" gi $end
$upscope $end
$scope begin gen_correct[62] $end
$var parameter 7 *" gi $end
$upscope $end
$scope begin gen_correct[63] $end
$var parameter 7 +" gi $end
$upscope $end
$scope begin gen_correct[64] $end
$var parameter 8 ," gi $end
$upscope $end
$scope begin gen_correct[65] $end
$var parameter 8 -" gi $end
$upscope $end
$scope begin gen_correct[66] $end
$var parameter 8 ." gi $end
$upscope $end
$scope begin gen_correct[67] $end
$var parameter 8 /" gi $end
$upscope $end
$scope begin gen_correct[68] $end
$var parameter 8 0" gi $end
$upscope $end
$scope begin gen_correct[69] $end
$var parameter 8 1" gi $end
$upscope $end
$scope begin gen_correct[70] $end
$var parameter 8 2" gi $end
$upscope $end
$scope begin gen_correct[71] $end
$var parameter 8 3" gi $end
$upscope $end
$upscope $end
$scope begin T5_chk $end
$var integer 32 4" is_chk_i [31:0] $end
$var integer 32 5" is_chk_j [31:0] $end
$upscope $end
$scope task check_dbe $end
$var reg 64 6" data [63:0] $end
$var integer 32 7" pos_a [31:0] $end
$var integer 32 8" pos_b [31:0] $end
$upscope $end
$scope task check_no_error $end
$var reg 64 9" data [63:0] $end
$upscope $end
$scope task check_sbe $end
$var reg 64 :" data [63:0] $end
$var integer 32 ;" bit_pos [31:0] $end
$upscope $end
$upscope $end
$enddefinitions $end
$comment Show the parameter values. $end
$dumpall
b1000111 3"
b1000110 2"
b1000101 1"
b1000100 0"
b1000011 /"
b1000010 ."
b1000001 -"
b1000000 ,"
b111111 +"
b111110 *"
b111101 )"
b111100 ("
b111011 '"
b111010 &"
b111001 %"
b111000 $"
b110111 #"
b110110 ""
b110101 !"
b110100 ~
b110011 }
b110010 |
b110001 {
b110000 z
b101111 y
b101110 x
b101101 w
b101100 v
b101011 u
b101010 t
b101001 s
b101000 r
b100111 q
b100110 p
b100101 o
b100100 n
b100011 m
b100010 l
b100001 k
b100000 j
b11111 i
b11110 h
b11101 g
b11100 f
b11011 e
b11010 d
b11001 c
b11000 b
b10111 a
b10110 `
b10101 _
b10100 ^
b10011 ]
b10010 \
b10001 [
b10000 Z
b1111 Y
b1110 X
b1101 W
b1100 V
b1011 U
b1010 T
b1001 S
b1000 R
b111 Q
b110 P
b101 O
b100 N
b11 M
b10 L
b1 K
b0 J
$end
#0
$dumpvars
bx ;"
bx :"
bx 9"
bx 8"
bx 7"
bx 6"
bx 5"
bx 4"
b0 I
b0 H
b0 G
0F
b0 E
b0 D
b0 C
0B
b0 A
0@
0?
0>
0=
0<
0;
0:
b0 9
08
07
06
05
04
03
02
b0 1
b0 0
b0 /
bx .
bx -
b0 ,
0+
bx *
b0 )
b0 (
0'
b0 &
0%
b0 $
0#
b0 "
b0 !
$end
#5000
1'
#10000
1+
0'
#15000
1'
#20000
b0 9"
0'
#22000
1B
b111111111111111111111111111111111111111111111111111111111111111111111111 !
b111111111111111111111111111111111111111111111111111111111111111111111111 C
1:
1<
1>
1@
1;
1=
b111111111111111111111111111111111111111111111111111111111111111111111110 D
1?
b111111101111111111111111111111111111111011111111111111101111111011101000 A
b1111111111111111111111111111111111111111111111111111111111111111 )
b1111111111111111111111111111111111111111111111111111111111111111 9
b1111111111111111111111111111111111111111111111111111111111111111 9"
b1 /
#23000
b1111111111111111111111111111111111111111111111111111111111111111 &
b1111111111111111111111111111111111111111111111111111111111111111 H
0%
b111111111111111111111111111111111111111111111111111111111111111111111111 I
02
04
06
08
03
05
b0 "
b0 E
b0 $
b0 1
b0 G
07
b111111111111111111111111111111111111111111111111111111111111111111111111 (
b111111111111111111111111111111111111111111111111111111111111111111111111 0
#24000
1:
0@
1;
0=
1B
b101001011101001011010010110100101101001001101001011010011011010001001011 !
b101001011101001011010010110100101101001001101001011010011011010001001011 C
0<
0>
1?
b101001011101001011010010110100101101001001101001011010011011010001001010 D
b101001001101001011010010110100101101001001101001011010001011010001001000 A
b1010010110100101101001011010010110100101101001011010010110100101 )
b1010010110100101101001011010010110100101101001011010010110100101 9
b1010010110100101101001011010010110100101101001011010010110100101 9"
b10 /
#25000
02
08
03
05
0%
b1010010110100101101001011010010110100101101001011010010110100101 &
b1010010110100101101001011010010110100101101001011010010110100101 H
04
06
b0 "
b0 E
b0 $
b0 1
b0 G
07
b101001011101001011010010110100101101001001101001011010011011010001001011 I
b101001011101001011010010110100101101001001101001011010011011010001001011 (
b101001011101001011010010110100101101001001101001011010011011010001001011 0
1'
#26000
0B
b10110100010110100101101001011010010110110010110100101100100101110110100 !
b10110100010110100101101001011010010110110010110100101100100101110110100 C
0:
1<
1>
1@
0;
1=
b10110100010110100101101001011010010110110010110100101100100101110110100 D
0?
b10110100010110100101101001011010010110010010110100101100100101010100000 A
b101101001011010010110100101101001011010010110100101101001011010 )
b101101001011010010110100101101001011010010110100101101001011010 9
b101101001011010010110100101101001011010010110100101101001011010 9"
b11 /
#27000
b101101001011010010110100101101001011010010110100101101001011010 &
b101101001011010010110100101101001011010010110100101101001011010 H
0%
b10110100010110100101101001011010010110110010110100101100100101110110100 I
02
04
06
08
03
05
b0 "
b0 E
b0 $
b0 1
b0 G
07
b10110100010110100101101001011010010110110010110100101100100101110110100 (
b10110100010110100101101001011010010110110010110100101100100101110110100 0
#28000
0B
1@
1;
1=
b110111100101011011011111011101111110010110111111101011110101011111100100 !
b110111100101011011011111011101111110010110111111101011110101011111100100 C
0:
1<
0>
b110111100101011011011111011101111110010110111111101011110101011111100100 D
0?
b110111100101011011011111011101111110010010111111101011100101011011100000 A
b1101111010101101101111101110111111001010111111101011101010111110 )
b1101111010101101101111101110111111001010111111101011101010111110 9
b1101111010101101101111101110111111001010111111101011101010111110 9"
b100 /
#29000
b1101111010101101101111101110111111001010111111101011101010111110 &
b1101111010101101101111101110111111001010111111101011101010111110 H
08
03
05
0%
b110111100101011011011111011101111110010110111111101011110101011111100100 I
02
04
06
b0 "
b0 E
b0 $
b0 1
b0 G
07
b110111100101011011011111011101111110010110111111101011110101011111100100 (
b110111100101011011011111011101111110010110111111101011110101011111100100 0
#30000
1B
b1001000110100010101100111100010001101010111100111011110111111001 !
b1001000110100010101100111100010001101010111100111011110111111001 C
0:
0<
1>
1@
1;
0=
b1001000110100010101100111100010001101010111100111011110111111000 D
0?
b1001000110100010101100111100010001101010111100101011110011101000 A
b100100011010001010110011110001001101010111100110111101111 )
b100100011010001010110011110001001101010111100110111101111 9
b100100011010001010110011110001001101010111100110111101111 9"
b101 /
0'
#31000
b100100011010001010110011110001001101010111100110111101111 &
b100100011010001010110011110001001101010111100110111101111 H
0%
b1001000110100010101100111100010001101010111100111011110111111001 I
02
04
06
08
03
05
b0 "
b0 E
b0 $
b0 1
b0 G
07
b1001000110100010101100111100010001101010111100111011110111111001 (
b1001000110100010101100111100010001101010111100111011110111111001 0
#32000
0B
b110111100101011011011111011101111110010110111111101011110101011111100100 !
b110111100101011011011111011101111110010110111111101011110101011111100100 C
0:
1<
0>
1@
1;
1=
b110111100101011011011111011101111110010110111111101011110101011111100100 D
0?
b110111100101011011011111011101111110010010111111101011100101011011100000 A
b1101111010101101101111101110111111001010111111101011101010111110 )
b1101111010101101101111101110111111001010111111101011101010111110 9
b0 ;"
b1101111010101101101111101110111111001010111111101011101010111110 :"
b0 -
b110 /
#33000
b1101111010101101101111101110111111001010111111101011101010111110 &
b1101111010101101101111101110111111001010111111101011101010111110 H
0#
b110111100101011011011111011101111110010110111111101011110101011111100101 I
02
04
06
08
03
05
b0 $
b0 1
b0 G
07
b1 "
b1 E
1F
b110111100101011011011111011101111110010110111111101011110101011111100101 (
b110111100101011011011111011101111110010110111111101011110101011111100101 0
b110111100101011011011111011101111110010110111111101011110101011111100101 *
#34000
b1 ;"
b1 -
b111 /
#35000
1#
b11 "
b11 E
b1 $
b1 1
b1 G
12
b110111100101011011011111011101111110010110111111101011110101011111100100 I
b110111100101011011011111011101111110010110111111101011110101011111100110 (
b110111100101011011011111011101111110010110111111101011110101011111100110 0
b110111100101011011011111011101111110010110111111101011110101011111100110 *
1'
#36000
b10 ;"
b10 -
b1000 /
#37000
02
b101 "
b101 E
b10 $
b10 1
b10 G
14
b110111100101011011011111011101111110010110111111101011110101011111100100 I
b110111100101011011011111011101111110010110111111101011110101011111100000 (
b110111100101011011011111011101111110010110111111101011110101011111100000 0
b110111100101011011011111011101111110010110111111101011110101011111100000 *
#38000
b11 ;"
b11 -
b1001 /
#39000
b111 "
b111 E
b11 $
b11 1
b11 G
12
b1101111010101101101111101110111111001010111111101011101010111110 &
b1101111010101101101111101110111111001010111111101011101010111110 H
b110111100101011011011111011101111110010110111111101011110101011111100100 I
b110111100101011011011111011101111110010110111111101011110101011111101100 (
b110111100101011011011111011101111110010110111111101011110101011111101100 0
b110111100101011011011111011101111110010110111111101011110101011111101100 *
#40000
b100 ;"
b100 -
b1010 /
0'
#41000
02
04
b1001 "
b1001 E
b100 $
b100 1
b100 G
16
b1101111010101101101111101110111111001010111111101011101010111110 &
b1101111010101101101111101110111111001010111111101011101010111110 H
b110111100101011011011111011101111110010110111111101011110101011111100100 I
b110111100101011011011111011101111110010110111111101011110101011111110100 (
b110111100101011011011111011101111110010110111111101011110101011111110100 0
b110111100101011011011111011101111110010110111111101011110101011111110100 *
#42000
b101 ;"
b101 -
b1011 /
#43000
b1011 "
b1011 E
b101 $
b101 1
b101 G
12
b1101111010101101101111101110111111001010111111101011101010111110 &
b1101111010101101101111101110111111001010111111101011101010111110 H
b110111100101011011011111011101111110010110111111101011110101011111100100 I
b110111100101011011011111011101111110010110111111101011110101011111000100 (
b110111100101011011011111011101111110010110111111101011110101011111000100 0
b110111100101011011011111011101111110010110111111101011110101011111000100 *
#44000
b110 ;"
b110 -
b1100 /
#45000
02
14
b1101 "
b1101 E
b110 $
b110 1
b110 G
16
b1101111010101101101111101110111111001010111111101011101010111110 &
b1101111010101101101111101110111111001010111111101011101010111110 H
b110111100101011011011111011101111110010110111111101011110101011111100100 I
b110111100101011011011111011101111110010110111111101011110101011110100100 (
b110111100101011011011111011101111110010110111111101011110101011110100100 0
b110111100101011011011111011101111110010110111111101011110101011110100100 *
1'
#46000
b111 ;"
b111 -
b1101 /
#47000
12
14
b1111 "
b1111 E
b111 $
b111 1
b111 G
16
b1101111010101101101111101110111111001010111111101011101010111110 &
b1101111010101101101111101110111111001010111111101011101010111110 H
b110111100101011011011111011101111110010110111111101011110101011111100100 I
b110111100101011011011111011101111110010110111111101011110101011101100100 (
b110111100101011011011111011101111110010110111111101011110101011101100100 0
b110111100101011011011111011101111110010110111111101011110101011101100100 *
#48000
b1000 ;"
b1000 -
b1110 /
#49000
02
04
06
b10001 "
b10001 E
b1000 $
b1000 1
b1000 G
18
b1101111010101101101111101110111111001010111111101011101010111110 &
b1101111010101101101111101110111111001010111111101011101010111110 H
b110111100101011011011111011101111110010110111111101011110101011111100100 I
b110111100101011011011111011101111110010110111111101011110101011011100100 (
b110111100101011011011111011101111110010110111111101011110101011011100100 0
b110111100101011011011111011101111110010110111111101011110101011011100100 *
#50000
b1001 ;"
b1001 -
b1111 /
0'
#51000
b10011 "
b10011 E
b1001 $
b1001 1
b1001 G
12
b1101111010101101101111101110111111001010111111101011101010111110 &
b1101111010101101101111101110111111001010111111101011101010111110 H
b110111100101011011011111011101111110010110111111101011110101011111100100 I
b110111100101011011011111011101111110010110111111101011110101010111100100 (
b110111100101011011011111011101111110010110111111101011110101010111100100 0
b110111100101011011011111011101111110010110111111101011110101010111100100 *
#52000
b1010 ;"
b1010 -
b10000 /
#53000
02
14
b10101 "
b10101 E
b1010 $
b1010 1
b1010 G
18
b1101111010101101101111101110111111001010111111101011101010111110 &
b1101111010101101101111101110111111001010111111101011101010111110 H
b110111100101011011011111011101111110010110111111101011110101011111100100 I
b110111100101011011011111011101111110010110111111101011110101001111100100 (
b110111100101011011011111011101111110010110111111101011110101001111100100 0
b110111100101011011011111011101111110010110111111101011110101001111100100 *
#54000
b1011 ;"
b1011 -
b10001 /
#55000
12
14
b10111 "
b10111 E
b1011 $
b1011 1
b1011 G
18
b1101111010101101101111101110111111001010111111101011101010111110 &
b1101111010101101101111101110111111001010111111101011101010111110 H
b110111100101011011011111011101111110010110111111101011110101011111100100 I
b110111100101011011011111011101111110010110111111101011110101111111100100 (
b110111100101011011011111011101111110010110111111101011110101111111100100 0
b110111100101011011011111011101111110010110111111101011110101111111100100 *
1'
#56000
b1100 ;"
b1100 -
b10010 /
#57000
16
02
04
b11001 "
b11001 E
b1100 $
b1100 1
b1100 G
18
b1101111010101101101111101110111111001010111111101011101010111110 &
b1101111010101101101111101110111111001010111111101011101010111110 H
b110111100101011011011111011101111110010110111111101011110101011111100100 I
b110111100101011011011111011101111110010110111111101011110100011111100100 (
b110111100101011011011111011101111110010110111111101011110100011111100100 0
b110111100101011011011111011101111110010110111111101011110100011111100100 *
#58000
b1101 ;"
b1101 -
b10011 /
#59000
16
12
b11011 "
b11011 E
b1101 $
b1101 1
b1101 G
18
b1101111010101101101111101110111111001010111111101011101010111110 &
b1101111010101101101111101110111111001010111111101011101010111110 H
b110111100101011011011111011101111110010110111111101011110101011111100100 I
b110111100101011011011111011101111110010110111111101011110111011111100100 (
b110111100101011011011111011101111110010110111111101011110111011111100100 0
b110111100101011011011111011101111110010110111111101011110111011111100100 *
#60000
b1110 ;"
b1110 -
b10100 /
0'
#61000
02
14
16
b11101 "
b11101 E
b1110 $
b1110 1
b1110 G
18
b1101111010101101101111101110111111001010111111101011101010111110 &
b1101111010101101101111101110111111001010111111101011101010111110 H
b110111100101011011011111011101111110010110111111101011110101011111100100 I
b110111100101011011011111011101111110010110111111101011110001011111100100 (
b110111100101011011011111011101111110010110111111101011110001011111100100 0
b110111100101011011011111011101111110010110111111101011110001011111100100 *
#62000
b1111 ;"
b1111 -
b10101 /
#63000
12
14
16
b11111 "
b11111 E
b1111 $
b1111 1
b1111 G
18
b1101111010101101101111101110111111001010111111101011101010111110 &
b1101111010101101101111101110111111001010111111101011101010111110 H
b110111100101011011011111011101111110010110111111101011110101011111100100 I
b110111100101011011011111011101111110010110111111101011111101011111100100 (
b110111100101011011011111011101111110010110111111101011111101011111100100 0
b110111100101011011011111011101111110010110111111101011111101011111100100 *
#64000
b10000 ;"
b10000 -
b10110 /
#65000
13
1#
02
04
06
b100001 "
b100001 E
b10000 $
b10000 1
b10000 G
08
b1101111010101101101111101110111111001010111111101011101010111110 &
b1101111010101101101111101110111111001010111111101011101010111110 H
b110111100101011011011111011101111110010110111111101011110101011111100100 I
b110111100101011011011111011101111110010110111111101011100101011111100100 (
b110111100101011011011111011101111110010110111111101011100101011111100100 0
b110111100101011011011111011101111110010110111111101011100101011111100100 *
1'
#66000
b10001 ;"
b10001 -
b10111 /
#67000
b100011 "
b100011 E
b10001 $
b10001 1
b10001 G
12
b1101111010101101101111101110111111001010111111101011101010111110 &
b1101111010101101101111101110111111001010111111101011101010111110 H
b110111100101011011011111011101111110010110111111101011110101011111100100 I
b110111100101011011011111011101111110010110111111101011010101011111100100 (
b110111100101011011011111011101111110010110111111101011010101011111100100 0
b110111100101011011011111011101111110010110111111101011010101011111100100 *
#68000
b10010 ;"
b10010 -
b11000 /
#69000
13
02
b100101 "
b100101 E
b10010 $
b10010 1
b10010 G
14
b1101111010101101101111101110111111001010111111101011101010111110 &
b1101111010101101101111101110111111001010111111101011101010111110 H
b110111100101011011011111011101111110010110111111101011110101011111100100 I
b110111100101011011011111011101111110010110111111101010110101011111100100 (
b110111100101011011011111011101111110010110111111101010110101011111100100 0
b110111100101011011011111011101111110010110111111101010110101011111100100 *
#70000
b10011 ;"
b10011 -
b11001 /
0'
#71000
13
12
b100111 "
b100111 E
b10011 $
b10011 1
b10011 G
14
b1101111010101101101111101110111111001010111111101011101010111110 &
b1101111010101101101111101110111111001010111111101011101010111110 H
b110111100101011011011111011101111110010110111111101011110101011111100100 I
b110111100101011011011111011101111110010110111111101001110101011111100100 (
b110111100101011011011111011101111110010110111111101001110101011111100100 0
b110111100101011011011111011101111110010110111111101001110101011111100100 *
#72000
b10100 ;"
b10100 -
b11010 /
#73000
16
13
02
b101001 "
b101001 E
b10100 $
b10100 1
b10100 G
04
b1101111010101101101111101110111111001010111111101011101010111110 &
b1101111010101101101111101110111111001010111111101011101010111110 H
b110111100101011011011111011101111110010110111111101011110101011111100100 I
b110111100101011011011111011101111110010110111111101111110101011111100100 (
b110111100101011011011111011101111110010110111111101111110101011111100100 0
b110111100101011011011111011101111110010110111111101111110101011111100100 *
#74000
b10101 ;"
b10101 -
b11011 /
#75000
16
13
b101011 "
b101011 E
b10101 $
b10101 1
b10101 G
12
b1101111010101101101111101110111111001010111111101011101010111110 &
b1101111010101101101111101110111111001010111111101011101010111110 H
b110111100101011011011111011101111110010110111111101011110101011111100100 I
b110111100101011011011111011101111110010110111111100011110101011111100100 (
b110111100101011011011111011101111110010110111111100011110101011111100100 0
b110111100101011011011111011101111110010110111111100011110101011111100100 *
1'
#76000
b10110 ;"
b10110 -
b11100 /
#77000
02
14
16
b101101 "
b101101 E
b10110 $
b10110 1
b10110 G
13
b1101111010101101101111101110111111001010111111101011101010111110 &
b1101111010101101101111101110111111001010111111101011101010111110 H
b110111100101011011011111011101111110010110111111101011110101011111100100 I
b110111100101011011011111011101111110010110111111111011110101011111100100 (
b110111100101011011011111011101111110010110111111111011110101011111100100 0
b110111100101011011011111011101111110010110111111111011110101011111100100 *
#78000
b10111 ;"
b10111 -
b11101 /
#79000
12
14
16
b101111 "
b101111 E
b10111 $
b10111 1
b10111 G
13
b1101111010101101101111101110111111001010111111101011101010111110 &
b1101111010101101101111101110111111001010111111101011101010111110 H
b110111100101011011011111011101111110010110111111101011110101011111100100 I
b110111100101011011011111011101111110010110111111001011110101011111100100 (
b110111100101011011011111011101111110010110111111001011110101011111100100 0
b110111100101011011011111011101111110010110111111001011110101011111100100 *
#80000
b11000 ;"
b11000 -
b11110 /
0'
#81000
02
04
06
18
b110001 "
b110001 E
b11000 $
b11000 1
b11000 G
13
b1101111010101101101111101110111111001010111111101011101010111110 &
b1101111010101101101111101110111111001010111111101011101010111110 H
b110111100101011011011111011101111110010110111111101011110101011111100100 I
b110111100101011011011111011101111110010110111110101011110101011111100100 (
b110111100101011011011111011101111110010110111110101011110101011111100100 0
b110111100101011011011111011101111110010110111110101011110101011111100100 *
#82000
b11001 ;"
b11001 -
b11111 /
#83000
12
18
b110011 "
b110011 E
b11001 $
b11001 1
b11001 G
13
b1101111010101101101111101110111111001010111111101011101010111110 &
b1101111010101101101111101110111111001010111111101011101010111110 H
b110111100101011011011111011101111110010110111111101011110101011111100100 I
b110111100101011011011111011101111110010110111101101011110101011111100100 (
b110111100101011011011111011101111110010110111101101011110101011111100100 0
b110111100101011011011111011101111110010110111101101011110101011111100100 *
#84000
b11010 ;"
b11010 -
b100000 /
#85000
02
14
18
b110101 "
b110101 E
b11010 $
b11010 1
b11010 G
13
b1101111010101101101111101110111111001010111111101011101010111110 &
b1101111010101101101111101110111111001010111111101011101010111110 H
b110111100101011011011111011101111110010110111111101011110101011111100100 I
b110111100101011011011111011101111110010110111011101011110101011111100100 (
b110111100101011011011111011101111110010110111011101011110101011111100100 0
b110111100101011011011111011101111110010110111011101011110101011111100100 *
1'
#86000
b11011 ;"
b11011 -
b100001 /
#87000
12
14
18
b110111 "
b110111 E
b11011 $
b11011 1
b11011 G
13
b1101111010101101101111101110111111001010111111101011101010111110 &
b1101111010101101101111101110111111001010111111101011101010111110 H
b110111100101011011011111011101111110010110111111101011110101011111100100 I
b110111100101011011011111011101111110010110110111101011110101011111100100 (
b110111100101011011011111011101111110010110110111101011110101011111100100 0
b110111100101011011011111011101111110010110110111101011110101011111100100 *
#88000
b11100 ;"
b11100 -
b100010 /
#89000
16
02
04
18
b111001 "
b111001 E
b11100 $
b11100 1
b11100 G
13
b1101111010101101101111101110111111001010111111101011101010111110 &
b1101111010101101101111101110111111001010111111101011101010111110 H
b110111100101011011011111011101111110010110111111101011110101011111100100 I
b110111100101011011011111011101111110010110101111101011110101011111100100 (
b110111100101011011011111011101111110010110101111101011110101011111100100 0
b110111100101011011011111011101111110010110101111101011110101011111100100 *
#90000
b11101 ;"
b11101 -
b100011 /
0'
#91000
16
12
18
b111011 "
b111011 E
b11101 $
b11101 1
b11101 G
13
b1101111010101101101111101110111111001010111111101011101010111110 &
b1101111010101101101111101110111111001010111111101011101010111110 H
b110111100101011011011111011101111110010110111111101011110101011111100100 I
b110111100101011011011111011101111110010110011111101011110101011111100100 (
b110111100101011011011111011101111110010110011111101011110101011111100100 0
b110111100101011011011111011101111110010110011111101011110101011111100100 *
#92000
b11110 ;"
b11110 -
b100100 /
#93000
02
14
16
18
b111101 "
b111101 E
b11110 $
b11110 1
b11110 G
13
b1101111010101101101111101110111111001010111111101011101010111110 &
b1101111010101101101111101110111111001010111111101011101010111110 H
b110111100101011011011111011101111110010110111111101011110101011111100100 I
b110111100101011011011111011101111110010111111111101011110101011111100100 (
b110111100101011011011111011101111110010111111111101011110101011111100100 0
b110111100101011011011111011101111110010111111111101011110101011111100100 *
#94000
b11111 ;"
b11111 -
b100101 /
#95000
12
14
16
18
b111111 "
b111111 E
b11111 $
b11111 1
b11111 G
13
b1101111010101101101111101110111111001010111111101011101010111110 &
b1101111010101101101111101110111111001010111111101011101010111110 H
b110111100101011011011111011101111110010110111111101011110101011111100100 I
b110111100101011011011111011101111110010100111111101011110101011111100100 (
b110111100101011011011111011101111110010100111111101011110101011111100100 0
b110111100101011011011111011101111110010100111111101011110101011111100100 *
1'
#96000
b100000 ;"
b100000 -
b100110 /
#97000
15
1#
02
04
06
08
b1000001 "
b1000001 E
b100000 $
b100000 1
b100000 G
03
b1101111010101101101111101110111111001010111111101011101010111110 &
b1101111010101101101111101110111111001010111111101011101010111110 H
b110111100101011011011111011101111110010110111111101011110101011111100100 I
b110111100101011011011111011101111110010010111111101011110101011111100100 (
b110111100101011011011111011101111110010010111111101011110101011111100100 0
b110111100101011011011111011101111110010010111111101011110101011111100100 *
#98000
b100001 ;"
b100001 -
b100111 /
#99000
b1000011 "
b1000011 E
b100001 $
b100001 1
b100001 G
12
b1101111010101101101111101110111111001010111111101011101010111110 &
b1101111010101101101111101110111111001010111111101011101010111110 H
b110111100101011011011111011101111110010110111111101011110101011111100100 I
b110111100101011011011111011101111110011110111111101011110101011111100100 (
b110111100101011011011111011101111110011110111111101011110101011111100100 0
b110111100101011011011111011101111110011110111111101011110101011111100100 *
#100000
b100010 ;"
b100010 -
b101000 /
0'
#101000
15
02
b1000101 "
b1000101 E
b100010 $
b100010 1
b100010 G
14
b1101111010101101101111101110111111001010111111101011101010111110 &
b1101111010101101101111101110111111001010111111101011101010111110 H
b110111100101011011011111011101111110010110111111101011110101011111100100 I
b110111100101011011011111011101111110000110111111101011110101011111100100 (
b110111100101011011011111011101111110000110111111101011110101011111100100 0
b110111100101011011011111011101111110000110111111101011110101011111100100 *
#102000
b100011 ;"
b100011 -
b101001 /
